{
  "main.css": "/static/css/main.901c259d.chunk.css",
  "main.js": "/static/js/main.8540dc43.chunk.js",
  "main.js.map": "/static/js/main.8540dc43.chunk.js.map",
  "runtime~main.js": "/static/js/runtime~main.fdfcfda2.js",
  "runtime~main.js.map": "/static/js/runtime~main.fdfcfda2.js.map",
  "static/css/2.83dedcc2.chunk.css": "/static/css/2.83dedcc2.chunk.css",
  "static/js/2.fbb63d67.chunk.js": "/static/js/2.fbb63d67.chunk.js",
  "static/js/2.fbb63d67.chunk.js.map": "/static/js/2.fbb63d67.chunk.js.map",
  "index.html": "/index.html",
  "precache-manifest.eea477ecf7d44dd6448f3f36c48c8fec.js": "/precache-manifest.eea477ecf7d44dd6448f3f36c48c8fec.js",
  "service-worker.js": "/service-worker.js",
  "static/css/2.83dedcc2.chunk.css.map": "/static/css/2.83dedcc2.chunk.css.map",
  "static/css/main.901c259d.chunk.css.map": "/static/css/main.901c259d.chunk.css.map"
}